03_CBD/CBD/examples/scripts/SinGen/sine.vcd
$date
	Generated at 2023-01-20 13:52:51.
$end
$version
	Generated by pyCBD 1.6.
$end
$timescale 1ms $end
$scope module SinGen $end
$var real 32 ! OUT1 $end
$scope module clock_clock $end
$var real 32 " delta_t $end
$var real 32 # rel_time $end
$var real 32 $ time $end
$upscope $end
$scope module clock_delta $end
$var real 32 % OUT1 $end
$upscope $end
$scope module sin $end
$var real 32 & OUT1 $end
$upscope $end
$scope module time $end
$var real 32 ' OUT1 $end
$var real 32 ( relative $end
$upscope $end
$upscope $end
$enddefinitions $end
$dumpvars
r0.000000 '
r0.000000 (
r0.000000 &
r0.000000 $
r0.000000 #
r0.100000 "
r0.100000 %
r0.000000 !
$end
#333
$dumpvars
r0.333000 '
r0.333000 (
r0.326507 &
r0.333000 $
r0.333000 #
r0.100000 "
r0.100000 %
r0.326507 !
$end
#666
$dumpvars
r0.666000 '
r0.666000 (
r0.617162 &
r0.666000 $
r0.666000 #
r0.100000 "
r0.100000 %
r0.617162 !
$end
#999
$dumpvars
r0.999000 '
r0.999000 (
r0.840890 &
r0.999000 $
r0.999000 #
r0.100000 "
r0.100000 %
r0.840890 !
$end
#1332
$dumpvars
r1.332000 '
r1.332000 (
r0.970563 &
r1.332000 $
r1.332000 #
r0.100000 "
r0.100000 %
r0.970563 !
$end
#1665
$dumpvars
r1.665000 '
r1.665000 (
r0.994433 &
r1.665000 $
r1.665000 #
r0.100000 "
r0.100000 %
r0.994433 !
$end
#1998
$dumpvars
r1.998000 '
r1.998000 (
r0.910037 &
r1.998000 $
r1.998000 #
r0.100000 "
r0.100000 %
r0.910037 !
$end
#2331
$dumpvars
r2.331000 '
r2.331000 (
r0.723930 &
r2.331000 $
r2.331000 #
r0.100000 "
r0.100000 %
r0.723930 !
$end
#2664
$dumpvars
r2.664000 '
r2.664000 (
r0.459104 &
r2.664000 $
r2.664000 #
r0.100000 "
r0.100000 %
r0.459104 !
$end
#2997
$dumpvars
r2.997000 '
r2.997000 (
r0.144064 &
r2.997000 $
r2.997000 #
r0.100000 "
r0.100000 %
r0.144064 !
$end
#3330
$dumpvars
r3.330000 '
r3.330000 (
r-0.187084 &
r3.330000 $
r3.330000 #
r0.100000 "
r0.100000 %
r-0.187084 !
$end
#3663
$dumpvars
r3.663000 '
r3.663000 (
r-0.497529 &
r3.663000 $
r3.663000 #
r0.100000 "
r0.100000 %
r-0.497529 !
$end
#3996
$dumpvars
r3.996000 '
r3.996000 (
r-0.754041 &
r3.996000 $
r3.996000 #
r0.100000 "
r0.100000 %
r-0.754041 !
$end
#4329
$dumpvars
r4.329000 '
r4.329000 (
r-0.926442 &
r4.329000 $
r4.329000 #
r0.100000 "
r0.100000 %
r-0.926442 !
$end
#4662
$dumpvars
r4.662000 '
r4.662000 (
r-0.997555 &
r4.662000 $
r4.662000 #
r0.100000 "
r0.100000 %
r-0.997555 !
$end
#4995
$dumpvars
r4.995000 '
r4.995000 (
r-0.960101 &
r4.995000 $
r4.995000 #
r0.100000 "
r0.100000 %
r-0.960101 !
$end
#5328
$dumpvars
r5.328000 '
r5.328000 (
r-0.815607 &
r5.328000 $
r5.328000 #
r0.100000 "
r0.100000 %
r-0.815607 !
$end
#5661
$dumpvars
r5.661000 '
r5.661000 (
r-0.582112 &
r5.661000 $
r5.661000 #
r0.100000 "
r0.100000 %
r-0.582112 !
$end
#5994
$dumpvars
r5.994000 '
r5.994000 (
r-0.285083 &
r5.994000 $
r5.994000 #
r0.100000 "
r0.100000 %
r-0.285083 !
$end
#6327
$dumpvars
r6.327000 '
r6.327000 (
r0.043742 &
r6.327000 $
r6.327000 #
r0.100000 "
r0.100000 %
r0.043742 !
$end
#6660
$dumpvars
r6.660000 '
r6.660000 (
r0.367526 &
r6.660000 $
r6.660000 #
r0.100000 "
r0.100000 %
r0.367526 !
$end
#6993
$dumpvars
r6.993000 '
r6.993000 (
r0.651488 &
r6.993000 $
r6.993000 #
r0.100000 "
r0.100000 %
r0.651488 !
$end
#7326
$dumpvars
r7.326000 '
r7.326000 (
r0.862987 &
r7.326000 $
r7.326000 #
r0.100000 "
r0.100000 %
r0.862987 !
$end
#7659
$dumpvars
r7.659000 '
r7.659000 (
r0.979866 &
r7.659000 $
r7.659000 #
r0.100000 "
r0.100000 %
r0.979866 !
$end
#7992
$dumpvars
r7.992000 '
r7.992000 (
r0.990125 &
r7.992000 $
r7.992000 #
r0.100000 "
r0.100000 %
r0.990125 !
$end
#8325
$dumpvars
r8.325000 '
r8.325000 (
r0.890279 &
r8.325000 $
r8.325000 #
r0.100000 "
r0.100000 %
r0.890279 !
$end
#8658
$dumpvars
r8.658000 '
r8.658000 (
r0.692969 &
r8.658000 $
r8.658000 #
r0.100000 "
r0.100000 %
r0.692969 !
$end
#8991
$dumpvars
r8.991000 '
r8.991000 (
r0.420120 &
r8.991000 $
r8.991000 #
r0.100000 "
r0.100000 %
r0.420120 !
$end
#9324
$dumpvars
r9.324000 '
r9.324000 (
r0.100531 &
r9.324000 $
r9.324000 #
r0.100000 "
r0.100000 %
r0.100531 !
$end
#9657
$dumpvars
r9.657000 '
r9.657000 (
r-0.229864 &
r9.657000 $
r9.657000 #
r0.100000 "
r0.100000 %
r-0.229864 !
$end
#9990
$dumpvars
r9.990000 '
r9.990000 (
r-0.535373 &
r9.990000 $
r9.990000 #
r0.100000 "
r0.100000 %
r-0.535373 !
$end
#10323
$dumpvars
r10.323000 '
r10.323000 (
r-0.781518 &
r10.323000 $
r10.323000 #
r0.100000 "
r0.100000 %
r-0.781518 !
$end
#10656
$dumpvars
r10.656000 '
r10.656000 (
r-0.941737 &
r10.656000 $
r10.656000 #
r0.100000 "
r0.100000 %
r-0.941737 !
$end
#10989
$dumpvars
r10.989000 '
r10.989000 (
r-0.999489 &
r10.989000 $
r10.989000 #
r0.100000 "
r0.100000 %
r-0.999489 !
$end
#11322
$dumpvars
r11.322000 '
r11.322000 (
r-0.946387 &
r11.322000 $
r11.322000 #
r0.100000 "
r0.100000 %
r-0.946387 !
$end
#11655
$dumpvars
r11.655000 '
r11.655000 (
r-0.789364 &
r11.655000 $
r11.655000 #
r0.100000 "
r0.100000 %
r-0.789364 !
$end
#11988
$dumpvars
r11.988000 '
r11.988000 (
r-0.546361 &
r11.988000 $
r11.988000 #
r0.100000 "
r0.100000 %
r-0.546361 !
$end
#12321
$dumpvars
r12.321000 '
r12.321000 (
r-0.242730 &
r12.321000 $
r12.321000 #
r0.100000 "
r0.100000 %
r-0.242730 !
$end
#12654
$dumpvars
r12.654000 '
r12.654000 (
r0.087412 &
r12.654000 $
r12.654000 #
r0.100000 "
r0.100000 %
r0.087412 !
$end
#12987
$dumpvars
r12.987000 '
r12.987000 (
r0.408117 &
r12.987000 $
r12.987000 #
r0.100000 "
r0.100000 %
r0.408117 !
$end
#13320
$dumpvars
r13.320000 '
r13.320000 (
r0.683731 &
r13.320000 $
r13.320000 #
r0.100000 "
r0.100000 %
r0.683731 !
$end
#13653
$dumpvars
r13.653000 '
r13.653000 (
r0.883962 &
r13.653000 $
r13.653000 #
r0.100000 "
r0.100000 %
r0.883962 !
$end
#13986
$dumpvars
r13.986000 '
r13.986000 (
r0.988003 &
r13.986000 $
r13.986000 #
r0.100000 "
r0.100000 %
r0.988003 !
$end
#14319
$dumpvars
r14.319000 '
r14.319000 (
r0.982760 &
r14.319000 $
r14.319000 #
r0.100000 "
r0.100000 %
r0.982760 !
$end
#14652
$dumpvars
r14.652000 '
r14.652000 (
r0.869288 &
r14.652000 $
r14.652000 #
r0.100000 "
r0.100000 %
r0.869288 !
$end
#14985
$dumpvars
r14.985000 '
r14.985000 (
r0.661177 &
r14.985000 $
r14.985000 #
r0.100000 "
r0.100000 %
r0.661177 !
$end
#15318
$dumpvars
r15.318000 '
r15.318000 (
r0.379889 &
r15.318000 $
r15.318000 #
r0.100000 "
r0.100000 %
r0.379889 !
$end
#15651
$dumpvars
r15.651000 '
r15.651000 (
r0.056861 &
r15.651000 $
r15.651000 #
r0.100000 "
r0.100000 %
r0.056861 !
$end
#15984
$dumpvars
r15.984000 '
r15.984000 (
r-0.272376 &
r15.984000 $
r15.984000 #
r0.100000 "
r0.100000 %
r-0.272376 !
$end
#16317
$dumpvars
r16.317000 '
r16.317000 (
r-0.571662 &
r16.317000 $
r16.317000 #
r0.100000 "
r0.100000 %
r-0.571662 !
$end
#16650
$dumpvars
r16.650000 '
r16.650000 (
r-0.807747 &
r16.650000 $
r16.650000 #
r0.100000 "
r0.100000 %
r-0.807747 !
$end
#16983
$dumpvars
r16.983000 '
r16.983000 (
r-0.955911 &
r16.983000 $
r16.983000 #
r0.100000 "
r0.100000 %
r-0.955911 !
$end
#17316
$dumpvars
r17.316000 '
r17.316000 (
r-0.998636 &
r17.316000 $
r17.316000 #
r0.100000 "
r0.100000 %
r-0.998636 !
$end
#17649
$dumpvars
r17.649000 '
r17.649000 (
r-0.931076 &
r17.649000 $
r17.649000 #
r0.100000 "
r0.100000 %
r-0.931076 !
$end
#17982
$dumpvars
r17.982000 '
r17.982000 (
r-0.762178 &
r17.982000 $
r17.982000 #
r0.100000 "
r0.100000 %
r-0.762178 !
$end
#18315
$dumpvars
r18.315000 '
r18.315000 (
r-0.509147 &
r18.315000 $
r18.315000 #
r0.100000 "
r0.100000 %
r-0.509147 !
$end
#18648
$dumpvars
r18.648000 '
r18.648000 (
r-0.199946 &
r18.648000 $
r18.648000 #
r0.100000 "
r0.100000 %
r-0.199946 !
$end
#18981
$dumpvars
r18.981000 '
r18.981000 (
r0.130981 &
r18.981000 $
r18.981000 #
r0.100000 "
r0.100000 %
r0.130981 !
$end
#19314
$dumpvars
r19.314000 '
r19.314000 (
r0.447643 &
r19.314000 $
r19.314000 #
r0.100000 "
r0.100000 %
r0.447643 !
$end
#19647
$dumpvars
r19.647000 '
r19.647000 (
r0.714680 &
r19.647000 $
r19.647000 #
r0.100000 "
r0.100000 %
r0.714680 !
$end
